[gd_scene load_steps=4 format=2]

[ext_resource path="res://menu/visual_toggle.png" type="Texture" id=1]
[ext_resource path="res://menu/VisualToggle.gd" type="Script" id=2]
[ext_resource path="res://menu/visual_toggle_cross.png" type="Texture" id=3]

[node name="VisualToggle" type="Sprite"]
scale = Vector2( 4, 4 )
texture = ExtResource( 1 )
hframes = 2
script = ExtResource( 2 )

[node name="Cross" type="Sprite" parent="."]
visible = false
modulate = Color( 1.15, 0.7, 0, 1 )
position = Vector2( -0.5, 0 )
texture = ExtResource( 3 )

