[gd_scene load_steps=3 format=2]

[ext_resource path="res://levels/LongNeedles/needle.png" type="Texture" id=1]

[sub_resource type="RectangleShape2D" id=1]

custom_solver_bias = 0.0
extents = Vector2( 12, 8 )

[node name="Needle" type="StaticBody2D" groups=[
"walls",
"disposable",
]]
z_index = -1
z_as_relative = false
input_pickable = false
collision_layer = 1
collision_mask = 1
constant_linear_velocity = Vector2( 0, 0 )
constant_angular_velocity = 0.0

[node name="Sprite" type="Sprite" parent="."]
scale = Vector2( 4, 4 )
z_index = -5
texture = ExtResource( 1 )
centered = false
offset = Vector2( -2, 0 )

[node name="Collision" type="CollisionShape2D" parent="."]
visible = false
position = Vector2( 0, 20 )
shape = SubResource( 1 )
one_way_collision = true

