[gd_scene load_steps=3 format=2]

[ext_resource path="res://levels/GodotParts/Shard/Shard.gd" type="Script" id=1]
[ext_resource path="res://levels/GodotParts/Shard/shard-eye.png" type="Texture" id=2]

[node name="Shard" type="RigidBody2D"]
gravity_scale = 10.0
script = ExtResource( 1 )

[node name="Sprite" type="Sprite" parent="."]
scale = Vector2( 4, 4 )
texture = ExtResource( 2 )

[node name="Timer" type="Timer" parent="."]
wait_time = 2.0

[connection signal="timeout" from="Timer" to="." method="_on_Timer_timeout"]
