[gd_scene load_steps=4 format=2]

[ext_resource path="res://level/Level.tscn" type="PackedScene" id=1]
[ext_resource path="res://levels/TastyPies/TastyPies.gd" type="Script" id=2]
[ext_resource path="res://levels/TastyPies/pickup.wav" type="AudioStream" id=3]

[node name="TastyPies" instance=ExtResource( 1 )]
script = ExtResource( 2 )
number = 9
title = "Tasty Pies!"

[node name="Sky" parent="." index="0"]
modulate = Color( 0.278431, 0.137255, 0.137255, 1 )

[node name="HillsBack" parent="." index="1"]
modulate = Color( 0.392157, 0.180392, 0.180392, 1 )

[node name="HillsFront" parent="." index="2"]
modulate = Color( 0.501961, 0.239216, 0.239216, 1 )

[node name="WallsB" parent="." index="3"]
modulate = Color( 0.243137, 0.0941176, 0.0941176, 1 )

[node name="Foreground" parent="." index="4"]
modulate = Color( 1, 0.662745, 0.662745, 1 )

[node name="PlayerSpawn" type="Position2D" parent="." index="10"]
position = Vector2( 496, 688 )

[node name="PieSpawnDelay" type="Timer" parent="." index="11"]
process_mode = 1
wait_time = 1.0
one_shot = true
autostart = false

[node name="PieSpawns" type="Node2D" parent="." index="12"]
editor/display_folded = true

[node name="PieSpawn1" type="Position2D" parent="PieSpawns" index="0"]
position = Vector2( 496, -64 )

[node name="PieSpawn2" type="Position2D" parent="PieSpawns" index="1"]
position = Vector2( 288, -64 )

[node name="PieSpawn3" type="Position2D" parent="PieSpawns" index="2"]
position = Vector2( 704, -64 )

[node name="Pickup" type="AudioStreamPlayer" parent="." index="13"]
stream = ExtResource( 3 )
volume_db = -15.0
pitch_scale = 1.2
autoplay = false
stream_paused = false
mix_target = 0
bus = "Effects"

[connection signal="timeout" from="PieSpawnDelay" to="." method="_on_PieSpawnDelay_timeout"]
