[gd_scene load_steps=8 format=2]

[ext_resource path="res://level/LevelName.gd" type="Script" id=1]
[ext_resource path="res://level/level_name.png" type="Texture" id=2]
[ext_resource path="res://fonts/SourceSansPro-Black.ttf" type="DynamicFontData" id=3]

[sub_resource type="DynamicFont" id=1]

size = 72
outline_size = 0
outline_color = Color( 0, 0, 0, 1 )
use_mipmaps = false
use_filter = false
font_data = ExtResource( 3 )

[sub_resource type="DynamicFont" id=2]

size = 36
outline_size = 0
outline_color = Color( 0, 0, 0, 1 )
use_mipmaps = false
use_filter = false
font_data = ExtResource( 3 )

[sub_resource type="Animation" id=3]

resource_name = "fly_away"
length = 2.0
loop = false
step = 0.1
tracks/0/type = "bezier"
tracks/0/path = NodePath(".:position:x")
tracks/0/interp = 1
tracks/0/loop_wrap = true
tracks/0/imported = false
tracks/0/enabled = true
tracks/0/keys = {
"points": PoolRealArray( 512, -0.291871, -7.95927, 0.291871, 7.95927 ),
"times": PoolRealArray( -2.23517e-008 )
}
tracks/1/type = "bezier"
tracks/1/path = NodePath(".:position:y")
tracks/1/interp = 1
tracks/1/loop_wrap = true
tracks/1/imported = false
tracks/1/enabled = true
tracks/1/keys = {
"points": PoolRealArray( -323.051, -0.159772, -495.161, 0.159772, 495.161, 165.592, -0.223924, -13.3472, 0.223924, 13.3472, 193.891, -0.0886364, -2.38419e-006, 0.0886364, 2.38419e-006, 165.592, -0.144617, 138.447, 0.144617, -138.447, -2042.76, -0.181938, 1118.18, 0.181938, -1118.18 ),
"times": PoolRealArray( 0.0284098, 0.72, 1.20517, 1.52706, 2.00756 )
}

[sub_resource type="Animation" id=4]

length = 2.0
loop = false
step = 0.1
tracks/0/type = "bezier"
tracks/0/path = NodePath(".:position:x")
tracks/0/interp = 1
tracks/0/loop_wrap = true
tracks/0/imported = false
tracks/0/enabled = true
tracks/0/keys = {
"points": PoolRealArray( 0, -0.291871, -7.95927, 0.291871, 7.95927 ),
"times": PoolRealArray( 1 )
}
tracks/1/type = "bezier"
tracks/1/path = NodePath(".:position:y")
tracks/1/interp = 1
tracks/1/loop_wrap = true
tracks/1/imported = false
tracks/1/enabled = true
tracks/1/keys = {
"points": PoolRealArray( -496.603, -0.159772, -495.161, 0.159772, 495.161, -7.95929, -0.223924, -13.3472, 0.223924, 13.3472, 20.3393, -0.0886364, -2.38419e-006, 0.0886364, 2.38419e-006, -7.95929, -0.144617, 138.447, 0.144617, -138.447, -2216.31, -0.181938, 1118.18, 0.181938, -1118.18 ),
"times": PoolRealArray( 0.00350559, 0.695096, 1.18026, 1.50215, 1.98266 )
}

[node name="LevelName" type="Node2D" groups=[
"buttonshift",
]]
position = Vector2( 512, -1996.29 )
z_index = 200
script = ExtResource( 1 )
__meta__ = {
"_edit_group_": true
}

[node name="Sprite" type="Sprite" parent="."]
scale = Vector2( 4, 4 )
texture = ExtResource( 2 )

[node name="Number" type="Label" parent="."]
modulate = Color( 1.1, 0.7, 0, 1 )
anchor_left = 0.0
anchor_top = 0.0
anchor_right = 1.0
anchor_bottom = 1.0
margin_left = -197.0
margin_top = -96.0
margin_right = 197.0
margin_bottom = 24.0
rect_pivot_offset = Vector2( 0, 0 )
rect_clip_content = false
mouse_filter = 2
mouse_default_cursor_shape = 0
size_flags_horizontal = 1
size_flags_vertical = 4
custom_fonts/font = SubResource( 1 )
text = "#"
align = 1
valign = 1
percent_visible = 1.0
lines_skipped = 0
max_lines_visible = -1

[node name="Title" type="Label" parent="."]
modulate = Color( 1.1, 0.7, 0, 1 )
anchor_left = 0.0
anchor_top = 0.0
anchor_right = 1.0
anchor_bottom = 1.0
margin_left = -200.0
margin_top = -9.0
margin_right = 199.0
margin_bottom = 99.0
rect_pivot_offset = Vector2( 0, 0 )
rect_clip_content = false
mouse_filter = 2
mouse_default_cursor_shape = 0
size_flags_horizontal = 1
size_flags_vertical = 4
custom_fonts/font = SubResource( 2 )
text = "Title!"
align = 1
valign = 1
percent_visible = 1.0
lines_skipped = 0
max_lines_visible = -1

[node name="Animation" type="AnimationPlayer" parent="."]
root_node = NodePath("..")
autoplay = ""
playback_process_mode = 1
playback_default_blend_time = 0.0
playback_speed = 1.0
anims/fly_away = SubResource( 3 )
anims/fly_away_x = SubResource( 4 )
blend_times = [  ]

[connection signal="animation_finished" from="Animation" to="." method="_on_Animation_animation_finished"]
