[gd_scene load_steps=4 format=2]

[ext_resource path="res://menu/Title/letter.png" type="Texture" id=1]
[ext_resource path="res://menu/Title/Letter.gd" type="Script" id=2]

[sub_resource type="Animation" id=1]

resource_name = "float"
length = 4.0
loop = true
step = 0.1
tracks/0/type = "value"
tracks/0/path = NodePath(".:float_offset")
tracks/0/interp = 1
tracks/0/loop_wrap = true
tracks/0/imported = false
tracks/0/enabled = true
tracks/0/keys = {
"times": PoolRealArray( 0, 1, 2, 3, 4 ),
"transitions": PoolRealArray( 0.5, 2, 0.5, 2, 1 ),
"update": 0,
"values": [ Vector2( 0, 0 ), Vector2( 0, -4 ), Vector2( 0, 0 ), Vector2( 0, 4 ), Vector2( 0, 0 ) ]
}

[node name="Letter" type="Sprite" groups=[
"letter",
]]
scale = Vector2( 4, 4 )
texture = ExtResource( 1 )
centered = false
hframes = 14
script = ExtResource( 2 )
float_offset = Vector2( 0, 3.53425 )

[node name="AnimationFloat" type="AnimationPlayer" parent="."]
root_node = NodePath("..")
autoplay = ""
playback_process_mode = 1
playback_default_blend_time = 0.0
playback_speed = 1.0
anims/float = SubResource( 1 )
blend_times = [  ]

